{
  "project_info": {
    "project_number": "229859353229",
    "firebase_url": "https://dungeongame-d3e59.firebaseio.com",
    "project_id": "dungeongame-d3e59",
    "storage_bucket": "dungeongame-d3e59.appspot.com"
  },
  "client": [
    {
      "client_info": {
        "mobilesdk_app_id": "1:229859353229:android:94beb6f142e11f31",
        "android_client_info": {
          "package_name": "info.gfruit.dungeon"
        }
      },
      "oauth_client": [
        {
          "client_id": "229859353229-fd6gtfgvb0agljiso1cukm04v7nelgat.apps.googleusercontent.com",
          "client_type": 1,
          "android_info": {
            "package_name": "info.gfruit.dungeon",
            "certificate_hash": "4fa2320292c5b08d6b298ad616503d1a60682f87"
          }
        },
        {
          "client_id": "229859353229-tqnmse0v0spliutj7mbq5h70ekofaus3.apps.googleusercontent.com",
          "client_type": 3
        }
      ],
      "api_key": [
        {
          "current_key": "AIzaSyA5Js0-LXKPZTGfACiAfHvaI2c1WWwrJB8"
        }
      ],
      "services": {
        "analytics_service": {
          "status": 1
        },
        "appinvite_service": {
          "status": 2,
          "other_platform_oauth_client": [
            {
              "client_id": "229859353229-tqnmse0v0spliutj7mbq5h70ekofaus3.apps.googleusercontent.com",
              "client_type": 3
            }
          ]
        },
        "ads_service": {
          "status": 2
        }
      }
    }
  ],
  "configuration_version": "1"
}